Percentage served,Time in ms
0,296.679
1,296.679
2,296.679
3,296.679
4,296.679
5,296.679
6,296.679
7,296.679
8,296.679
9,296.679
10,296.679
11,296.679
12,296.679
13,296.679
14,296.679
15,296.679
16,296.679
17,296.679
18,296.679
19,296.679
20,296.679
21,296.679
22,296.679
23,296.679
24,296.679
25,306.433
26,306.433
27,306.433
28,306.433
29,306.433
30,306.433
31,306.433
32,306.433
33,306.433
34,306.433
35,306.433
36,306.433
37,306.433
38,306.433
39,306.433
40,306.433
41,306.433
42,306.433
43,306.433
44,306.433
45,306.433
46,306.433
47,306.433
48,306.433
49,306.433
50,306.433
51,306.433
52,306.433
53,306.433
54,306.433
55,306.433
56,306.433
57,306.433
58,306.433
59,306.433
60,306.433
61,306.433
62,306.433
63,306.433
64,306.433
65,306.433
66,306.433
67,306.433
68,306.433
69,306.433
70,306.433
71,306.433
72,306.433
73,306.433
74,306.433
75,8319395793583698.000
76,8319395793583698.000
77,8319395793583698.000
78,8319395793583698.000
79,8319395793583698.000
80,8319395793583698.000
81,8319395793583698.000
82,8319395793583698.000
83,8319395793583698.000
84,8319395793583698.000
85,8319395793583698.000
86,8319395793583698.000
87,8319395793583698.000
88,8319395793583698.000
89,8319395793583698.000
90,8319395793583698.000
91,8319395793583698.000
92,8319395793583698.000
93,8319395793583698.000
94,8319395793583698.000
95,8319395793583698.000
96,8319395793583698.000
97,8319395793583698.000
98,8319395793583698.000
99,8319395793583698.000
100,306.433
